****************************************
		Levy-Tsallis
****************************************
Multiplicity (%) & $m$ ($Gev/$c^{2}$)	& $n$	& $C$ (GeV)	& \mathrm{d}N/\mathrm{d}y	& \chi^{2} / ndf \\
   0 -  0	& 1.87561 $\pm$ 0	& 6.7384 $\pm$ 0.548097	& 0.4 $\pm$ 0.00609951	& 0.00212875 $\pm$ 5.32608e-05	& 1.3547 \\
   0 -  0	& 1.87561 $\pm$ 0	& 7.27989 $\pm$ 0.516144	& 0.4 $\pm$ 0.00654586	& 0.00201905 $\pm$ 4.54753e-05	& 0.560869 \\
   0 -  0	& 1.87561 $\pm$ 0	& 7.42241 $\pm$ 0.607264	& 0.4 $\pm$ 0.0119026	& 0.0018945 $\pm$ 4.36081e-05	& 0.499753 \\
   0 -  1	& 1.87561 $\pm$ 0	& 8.36486 $\pm$ 0.602483	& 0.4 $\pm$ 0.0134989	& 0.0017319 $\pm$ 3.82379e-05	& 0.213571 \\
   0 -  1	& 1.87561 $\pm$ 0	& 7.70375 $\pm$ 0.462795	& 0.4 $\pm$ 0.00777157	& 0.001853 $\pm$ 3.98873e-05	& 0.422899 \\
****************************************
		Boltzmann
****************************************
Multiplicity (%) & $A (GeV^{-2}c^{3}$)	& $T$ (GeV)	& \chi^{2} / ndf \\
   0 -  0	& 0.041303 $\pm$ 0.00536975	& 0.468761 $\pm$ 0.0110741	& 1.07899 \\
   0 -  0	& 0.0430371 $\pm$ 0.00482361	& 0.461159 $\pm$ 0.00897468	& 0.870539 \\
   0 -  0	& 0.045386 $\pm$ 0.00545496	& 0.45115 $\pm$ 0.00933505	& 1.13044 \\
   0 -  1	& 0.0437529 $\pm$ 0.00470426	& 0.447601 $\pm$ 0.00797702	& 1.35251 \\
   0 -  1	& 0.0377103 $\pm$ 0.00380958	& 0.465182 $\pm$ 0.00798149	& 1.62955 \\
****************************************
		Mt-exponential
****************************************
Multiplicity (%) & $A (GeV^{-1}c$)	& $T$ (GeV)	& \chi^{2} / ndf \\
   0 -  0	& 0.0416896 $\pm$ 0.00513151	& 0.562891 $\pm$ 0.0150857	& 0.789089 \\
   0 -  0	& 0.0438151 $\pm$ 0.00468209	& 0.550837 $\pm$ 0.0121745	& 0.462397 \\
   0 -  0	& 0.0457002 $\pm$ 0.00525841	& 0.537974 $\pm$ 0.0126803	& 0.737531 \\
   0 -  1	& 0.0449321 $\pm$ 0.00461763	& 0.530667 $\pm$ 0.0106867	& 0.801693 \\
   0 -  1	& 0.0394473 $\pm$ 0.00378438	& 0.55336 $\pm$ 0.0106878	& 0.945151 \\
****************************************
		Pt-exponential
****************************************
Multiplicity (%) & $A (GeV^{-1}c$)	& $T$ (GeV)	& \chi^{2} / ndf \\
   0 -  0	& 0.00353346 $\pm$ 0.000175148	& 0.790948 $\pm$ 0.0169088	& 1.13109 \\
   0 -  0	& 0.00355587 $\pm$ 0.000163069	& 0.768109 $\pm$ 0.0138443	& 0.788473 \\
   0 -  0	& 0.0034205 $\pm$ 0.000165124	& 0.759886 $\pm$ 0.0147456	& 0.76009 \\
   0 -  1	& 0.00336354 $\pm$ 0.000152508	& 0.735317 $\pm$ 0.0121653	& 0.609353 \\
   0 -  1	& 0.00341243 $\pm$ 0.000147424	& 0.753465 $\pm$ 0.0118065	& 0.552547 \\
